Microbiome in diffuse type 2 chronic rhinosinusitis
…
Code

statistics <- compare_means(Abundance ~ Time, psmelt_gesamt, group.by = "OTU", method = "wilcox.test", p.adjust.method = "holm")
statistics

# A tibble: 60 × 9
   OTU            .y.       group1  group2     p p.adj p.format p.signif method 
   <chr>          <chr>     <chr>   <chr>  <dbl> <dbl> <chr>    <chr>    <chr>  
 1 Staphylococcus Abundance healthy 0      0.917     1 0.91672  ns       Wilcox…
 2 Staphylococcus Abundance healthy 28     0.918     1 0.91819  ns       Wilcox…
 3 Staphylococcus Abundance healthy 90     0.513     1 0.51276  ns       Wilcox…
 4 Staphylococcus Abundance healthy 180    0.199     1 0.19908  ns       Wilcox…
 5 Staphylococcus Abundance 0       28     0.908     1 0.90818  ns       Wilcox…
 6 Staphylococcus Abundance 0       90     0.430     1 0.43014  ns       Wilcox…
 7 Staphylococcus Abundance 0       180    0.136     1 0.13560  ns       Wilcox…
 8 Staphylococcus Abundance 28      90     0.519     1 0.51889  ns       Wilcox…
 9 Staphylococcus Abundance 28      180    0.184     1 0.18374  ns       Wilcox…
10 Staphylococcus Abundance 90      180    0.466     1 0.46561  ns       Wilcox…
# ℹ 50 more rows
…
gut microbiome

Code

statistics1 <- compare_means(Abundance ~ Time, psmelt_gesamt, group.by = "OTU", method = "wilcox.test", p.adjust.method = "holm")
statistics1

# A tibble: 60 × 9
   OTU         .y.       group1  group2     p p.adj p.format p.signif method  
   <chr>       <chr>     <chr>   <chr>  <dbl> <dbl> <chr>    <chr>    <chr>   
 1 Collinsella Abundance healthy 0      0.256     1 0.2556   ns       Wilcoxon
 2 Collinsella Abundance healthy 28     0.733     1 0.7325   ns       Wilcoxon
 3 Collinsella Abundance healthy 90     0.324     1 0.3240   ns       Wilcoxon
 4 Collinsella Abundance healthy 180    0.431     1 0.4311   ns       Wilcoxon
 5 Collinsella Abundance 0       28     0.191     1 0.1906   ns       Wilcoxon
 6 Collinsella Abundance 0       90     0.848     1 0.8477   ns       Wilcoxon
 7 Collinsella Abundance 0       180    0.772     1 0.7719   ns       Wilcoxon
 8 Collinsella Abundance 28      90     0.215     1 0.2153   ns       Wilcoxon
 9 Collinsella Abundance 28      180    0.501     1 0.5008   ns       Wilcoxon
10 Collinsella Abundance 90      180    0.769     1 0.7690   ns       Wilcoxon
# ℹ 50 more rows
…
